…
  (bool) get keys only?

## Value

tidy tibble of event objects, or vector if keys = TRUE

## Author

Gabriel Krotkov

## Examples

``` r
events(2019)
#> # A tibble: 303 × 31
#>    address   city  country district division_keys end_date event_code event_type
#>    <chr>     <chr> <chr>   <list>   <list>        <chr>    <chr>           <int>
#>  1 "7555 Fa… Calg… Canada  <NULL>   <NULL>        2019-04… abca                0
#>  2 "Von Bra… Hunt… USA     <NULL>   <NULL>        2019-03… alhu                0
#>  3 "1 Washi… Detr… USA     <NULL>   <NULL>        2019-04… arc                 3
#>  4 "Arkansa… Litt… USA     <NULL>   <NULL>        2019-03… arli                0
#>  5 "Harding… Sear… USA     <NULL>   <NULL>        2019-09… aroz               99
#>  6 "Macquar… Sydn… Austra… <NULL>   <NULL>        2019-07… audd               99
#>  7 "Olympic… Sydn… Austra… <NULL>   <NULL>        2019-03… ausc                0
#>  8 "Olympic… Sydn… Austra… <NULL>   <NULL>        2019-03… ausp                0
#>  9 "J. Lawr… Flag… USA     <NULL>   <NULL>        2019-03… azfl                0
#> 10 "Grand C… Phoe… USA     <NULL>   <NULL>        2019-04… azpx                0
#> # ℹ 293 more rows
#> # ℹ 23 more variables: event_type_string <chr>, first_event_code <chr>,
#> #   first_event_id <chr>, gmaps_place_id <lgl>, gmaps_url <lgl>, key <chr>,
#> #   lat <lgl>, lng <lgl>, location_name <chr>, name <chr>,
#> #   parent_event_key <chr>, playoff_type <int>, playoff_type_string <chr>,
#> #   postal_code <chr>, remap_teams <list>, short_name <chr>, start_date <chr>,
#> #   state_prov <chr>, timezone <chr>, webcasts <list>, website <chr>, …
events(2010, official = TRUE)
#> # A tibble: 56 × 31
#>    address          city  country district     division_keys end_date event_code
#>    <chr>            <chr> <chr>   <list>       <list>        <chr>    <chr>     
#>  1 "1 Georgia Dome… Atla… USA     <NULL>       <NULL>        2010-04… arc       
#>  2 "Arizona Vetera… Phoe… USA     <NULL>       <NULL>        2010-03… az        
#>  3 "Long Beach Are… Long… USA     <NULL>       <NULL>        2010-03… ca        
#>  4 "1 Georgia Dome… Atla… USA     <NULL>       <list [4]>    2010-04… cmp       
#>  5 "Daniel L. Ritc… Denv… USA     <NULL>       <NULL>        2010-03… co        
#>  6 "Connecticut Co… Hart… USA     <NULL>       <NULL>        2010-04… ct        
#>  7 "1 Georgia Dome… Atla… USA     <NULL>       <NULL>        2010-04… cur       
#>  8 "Moody Coliseum… Dall… USA     <NULL>       <NULL>        2010-03… da        
#>  9 "Walter E. Wash… Wash… USA     <NULL>       <NULL>        2010-03… dc        
#> 10 "Wayne State Un… Detr… USA     <named list> <NULL>        2010-03… dt        
#> # ℹ 46 more rows
#> # ℹ 24 more variables: event_type <int>, event_type_string <chr>,
#> #   first_event_code <chr>, first_event_id <chr>, gmaps_place_id <lgl>,
#> #   gmaps_url <lgl>, key <chr>, lat <lgl>, lng <lgl>, location_name <chr>,
#> #   name <chr>, parent_event_key <chr>, playoff_type <int>,
#> #   playoff_type_string <lgl>, postal_code <chr>, remap_teams <lgl>,
#> #   short_name <chr>, start_date <chr>, state_prov <chr>, timezone <chr>, …
events(2012, simple = TRUE)
#> # A tibble: 82 × 11
#>    city   country district end_date event_code event_type key   name  start_date
#>    <chr>  <chr>   <list>   <chr>    <chr>           <int> <chr> <chr> <chr>     
#>  1 St. L… USA     <NULL>   2012-04… arc                 3 2012… Arch… 2012-04-25
#>  2 Chand… USA     <NULL>   2012-03… az                  0 2012… Ariz… 2012-03-22
#>  3 Worce… USA     <NULL>   2012-05… bc                 99 2012… Batt… 2012-05-18
#>  4 Long … USA     <NULL>   2012-03… ca                  0 2012… Los … 2012-03-15
#>  5 San D… USA     <NULL>   2012-10… cabb               99 2012… Batt… 2012-10-20
#>  6 Madera USA     <NULL>   2012-04… caf                 0 2012… Cent… 2012-04-05
#>  7 Woods… USA     <NULL>   2012-10… cal                99 2012… CalG… 2012-10-12
#>  8 St. L… USA     <NULL>   2012-04… cmp                 4 2012… Eins… 2012-04-28
#>  9 Denver USA     <NULL>   2012-03… co                  0 2012… Colo… 2012-03-22
#> 10 Hartf… USA     <NULL>   2012-03… ct                  0 2012… Nort… 2012-03-29
#> # ℹ 72 more rows
#> # ℹ 2 more variables: state_prov <chr>, year <int>
…
