Event District Points — event_district_points • scoutR
…
#> 48       147, 114, 108         0
#> 49       157, 150, 130         0
#> 50       116, 112, 108         0
#> 51       118, 104, 101         0
#> 52       133, 124, 115         0
#> 53       149, 147, 133         0
#> 54       114, 111, 102         0
#> 55       132, 110, 106         0
#> 56       110, 109, 102         0
#> 57       129, 122, 121         0
#> 58       132, 130, 117         0
#> 59       127, 124, 122         0
#> 60       160, 141, 130         0
event_district_points("2015padre")
#> # A tibble: 35 × 6
#>    alliance_points award_points elim_points qual_points total team_keys
#>              <int>        <int>       <dbl>       <int> <dbl> <chr>    
#>  1               8            5           0          14    27 frc103   
#>  2               4            0          10          14    28 frc1143  
#>  3               7            0           0           8    15 frc1168  
#>  4               0            5           0           5    10 frc1391  
#>  5               5            0           0          10    15 frc1495  
#>  6               6            5           0          13    24 frc1712  
#>  7               0            0           0           7     7 frc1791  
#>  8              16            5          30          22    73 frc225   
#>  9               0            0           0           9     9 frc2539  
#> 10              16            5          30          20    71 frc2607  
#> # ℹ 25 more rows
…
