…
  (bool) simplify return objects?

- keys:

  (bool) return keys only?

## Value

tidy tibble of teams

## Examples

``` r
teams(0)
#> # A tibble: 405 × 18
#>    address city           country gmaps_place_id gmaps_url key   lat   lng  
#>    <lgl>   <chr>          <chr>   <lgl>          <lgl>     <chr> <lgl> <lgl>
#>  1 NA      Pontiac        USA     NA             NA        frc1  NA    NA   
#>  2 NA      Van Nuys       USA     NA             NA        frc4  NA    NA   
#>  3 NA      Melvindale     USA     NA             NA        frc5  NA    NA   
#>  4 NA      Plymouth       USA     NA             NA        frc6  NA    NA   
#>  5 NA      Baltimore      USA     NA             NA        frc7  NA    NA   
#>  6 NA      Palo Alto      USA     NA             NA        frc8  NA    NA   
#>  7 NA      Chicago        USA     NA             NA        frc9  NA    NA   
#>  8 NA      St. Louis Park USA     NA             NA        frc10 NA    NA   
#>  9 NA      Flanders       USA     NA             NA        frc11 NA    NA   
#> 10 NA      NA             NA      NA             NA        frc13 NA    NA   
#> # ℹ 395 more rows
#> # ℹ 10 more variables: location_name <lgl>, motto <lgl>, name <chr>,
#> #   nickname <chr>, postal_code <chr>, rookie_year <int>, school_name <chr>,
#> #   state_prov <chr>, team_number <int>, website <chr>
teams(4)
#> # A tibble: 408 × 18
#>    address city         country gmaps_place_id gmaps_url key     lat   lng  
#>    <lgl>   <chr>        <chr>   <lgl>          <lgl>     <chr>   <lgl> <lgl>
#>  1 NA      Dorr         USA     NA             NA        frc2000 NA    NA   
#>  2 NA      Kansas City  USA     NA             NA        frc2001 NA    NA   
#>  3 NA      Tualatin     USA     NA             NA        frc2002 NA    NA   
#>  4 NA      Tulsa        USA     NA             NA        frc2004 NA    NA   
#>  5 NA      Kansas City  USA     NA             NA        frc2005 NA    NA   
#>  6 NA      Duluth       USA     NA             NA        frc2007 NA    NA   
#>  7 NA      Kansas City  USA     NA             NA        frc2008 NA    NA   
#>  8 NA      Roxbury      USA     NA             NA        frc2009 NA    NA   
#>  9 NA      Warren       USA     NA             NA        frc2010 NA    NA   
#> 10 NA      Independence USA     NA             NA        frc2011 NA    NA   
#> # ℹ 398 more rows
#> # ℹ 10 more variables: location_name <lgl>, motto <lgl>, name <chr>,
#> #   nickname <chr>, postal_code <chr>, rookie_year <int>, school_name <chr>,
#> #   state_prov <chr>, team_number <int>, website <chr>
teams(1, year = 2016)
#> # A tibble: 148 × 18
#>    address city               country gmaps_place_id gmaps_url key   lat   lng  
#>    <lgl>   <chr>              <chr>   <lgl>          <lgl>     <chr> <lgl> <lgl>
#>  1 NA      Manchester/Goffst… USA     NA             NA        frc5… NA    NA   
#>  2 NA      Novi               USA     NA             NA        frc5… NA    NA   
#>  3 NA      Bedford            USA     NA             NA        frc5… NA    NA   
#>  4 NA      Miller Place       USA     NA             NA        frc5… NA    NA   
#>  5 NA      Cedar Falls        USA     NA             NA        frc5… NA    NA   
#>  6 NA      Massapequa         USA     NA             NA        frc5… NA    NA   
#>  7 NA      Lindenhurst        USA     NA             NA        frc5… NA    NA   
#>  8 NA      Sussex             USA     NA             NA        frc5… NA    NA   
#>  9 NA      Athens             USA     NA             NA        frc5… NA    NA   
#> 10 NA      Richmond           USA     NA             NA        frc5… NA    NA   
#> # ℹ 138 more rows
#> # ℹ 10 more variables: location_name <lgl>, motto <lgl>, name <chr>,
#> #   nickname <chr>, postal_code <chr>, rookie_year <int>, school_name <chr>,
#> #   state_prov <chr>, team_number <int>, website <chr>
teams(0, simple = TRUE)
#> # A tibble: 405 × 7
#>    city           country key   name             nickname state_prov team_number
#>    <chr>          <chr>   <chr> <chr>            <chr>    <chr>            <int>
#>  1 Pontiac        USA     frc1  FCA Foundation/… The Jug… Michigan             1
#>  2 Van Nuys       USA     frc4  Gene HAAS Found… Team 4 … California           4
#>  3 Melvindale     USA     frc5  Ford FIRST Robo… Robocar… MI                   5
#>  4 Plymouth       USA     frc6  ATK (Alliant Te… The Cog… MN                   6
#>  5 Baltimore      USA     frc7  Lockheed Martin… Team007  MD                   7
#>  6 Palo Alto      USA     frc8  Apple/Bayer Fun… Paly Ro… California           8
#>  7 Chicago        USA     frc9  Roosevelt High … Rooseve… IL                   9
#>  8 St. Louis Park USA     frc10 Benilde-St. Mar… Red Kni… MN                  10
#>  9 Flanders       USA     frc11 National Defens… MORT     New Jersey          11
#> 10 NA             NA      frc13 Team 13          Triskad… NA                  13
#> # ℹ 395 more rows
…
