…
#> [679] "2025mrcmp_qm72"   "2025mrcmp_qm84"   "2025mrcmp_qm91"  
#> [682] "2025njtab_qm1"    "2025njtab_qm12"   "2025njtab_qm20"  
#> [685] "2025njtab_qm23"   "2025njtab_qm33"   "2025njtab_qm38"  
#> [688] "2025njtab_qm42"   "2025njtab_qm45"   "2025njtab_qm55"  
#> [691] "2025njtab_qm58"   "2025njtab_qm6"    "2025njtab_qm61"  
#> [694] "2025njtab_sf10m1" "2025njtab_sf12m1" "2025njtab_sf3m1" 
#> [697] "2025njtab_sf8m1"  "2025paben_f1m1"   "2025paben_f1m2"  
#> [700] "2025paben_qm1"    "2025paben_qm14"   "2025paben_qm19"  
#> [703] "2025paben_qm24"   "2025paben_qm29"   "2025paben_qm34"  
#> [706] "2025paben_qm39"   "2025paben_qm45"   "2025paben_qm50"  
#> [709] "2025paben_qm57"   "2025paben_qm61"   "2025paben_qm7"   
#> [712] "2025paben_sf11m1" "2025paben_sf13m1" "2025paben_sf3m1" 
#> [715] "2025paben_sf8m1" 
team_matches(1712, year = 2016)
#> # A tibble: 60 × 101
#>    actual_time blue_dq_team_keys blue_score blue_surrogate_team_keys blue1 blue2
#>          <int> <lgl>                  <int> <lgl>                    <chr> <chr>
#>  1  1458400503 NA                        59 NA                       frc1… frc1…
#>  2  1459611505 NA                        94 NA                       frc1… frc3…
#>  3  1458401796 NA                        54 NA                       frc5… frc2…
#>  4  1461854068 NA                        94 NA                       frc5… frc2…
#>  5  1460660517 NA                       121 NA                       frc4… frc2…
#>  6  1459614211 NA                        81 NA                       frc5… frc7…
#>  7  1458405009 NA                        71 NA                       frc2… frc1…
#>  8  1460663217 NA                        92 NA                       frc1… frc5…
#>  9  1459621263 NA                        70 NA                       frc4… frc1…
#> 10  1458407409 NA                       119 NA                       frc2… frc5…
#> # ℹ 50 more rows
#> # ℹ 95 more variables: blue3 <chr>, red_dq_team_keys <list>, red_score <int>,
#> #   red_surrogate_team_keys <lgl>, red1 <chr>, red2 <chr>, red3 <chr>,
#> #   comp_level <fct>, event_key <chr>, key <chr>, match_number <int>,
#> #   post_result_time <lgl>, predicted_time <lgl>, blue_adjustPoints <int>,
#> #   blue_autoBoulderPoints <int>, blue_autoBouldersHigh <int>,
#> #   blue_autoBouldersLow <int>, blue_autoCrossingPoints <int>, …
…
